…
## Usage

### Get Station Information

#### All Available Stations

By default, `ki_station_list()` returns a tibble containing information
for all available stations for the selected hub.

``` r
# With swmc as the hub
ki_station_list(hub = 'swmc')
#> # A tibble: 3,879 x 5
#>    station_name     station_no station_id station_latitude station_longitu~
#>    <chr>            <chr>      <chr>                 <dbl>            <dbl>
#>  1 A SNOW TEMPLATE  SNOW-WLF-~ 952125                 NA               NA  
#>  2 AA SNOW TEMPLATE SNOW-WLF-~ 954599                 NA               NA  
#>  3 ABBOTSFORD A     CLIM-MSC-~ 133535                 49.0           -122. 
#>  4 ABERDEEN         CLIM-MSC-~ 121939                 45.5            -98.4
#>  5 ABITIBI CANYON   ZZSNOW-OP~ 148200                 49.9            -81.6
#>  6 ABITIBI LAKE     CLIM-MNR-~ 121135                 48.7            -80.1
#>  7 ABITIBI RIVER A~ HYDAT-04M~ 136328                 49.9            -81.6
#>  8 ABITIBI RIVER A~ HYDAT-04M~ 136304                 48.8            -80.7
#>  9 ABITIBI RIVER A~ HYDAT-04M~ 136324                 49.6            -81.4
#> 10 ABITIBI RIVER A~ HYDAT-04M~ 136332                 50.2            -81.6
#> # ... with 3,869 more rows
```
…
  - A vector like this `c(min_x, min_y, max_x, max_y)`
  - Or a comma separated string like this `"min_x,min_y,max_x,max_y"`

<!-- end list -->

``` r
# With vector
my_bounding_box <- c("-80.126038", "43.458297", "-79.002481", "43.969098")
my_stations <- ki_station_list(
  hub = 'swmc', 
  bounding_box = my_bounding_box
  )

my_stations
#> # A tibble: 168 x 5
#>    station_name    station_no  station_id station_latitude station_longitu~
#>    <chr>           <chr>       <chr>                 <dbl>            <dbl>
#>  1 ALBION HILLS    SNOW-MNR-2~ 137457                 43.9            -79.8
#>  2 ALTON           SNOW-WLF-AL 967627                 43.8            -80.1
#>  3 Acton Sewage T~ ZZ-WSC-ACT~ 149765                 43.6            -80.0
#>  4 BELFOUNTAIN     ZZSNOW-MNR~ 147848                 43.8            -80.0
#>  5 BELFOUNTAIN2    ZZSNOW-MNR~ 147864                 43.8            -80.0
#>  6 BOYD            SNOW-MNR-2~ 137465                 43.8            -79.6
#>  7 BROUGHAM CREEK~ HYDAT-02HC~ 135564                 43.9            -79.1
#>  8 BRUCE'S MILL    SNOW-MNR-2~ 137477                 43.9            -79.4
#>  9 BUTTONVILLE A   CLIM-MSC-Y~ 132165                 43.9            -79.4
#> 10 Black Creek be~ WSC-02HB024 247406                 43.6            -80.0
#> # ... with 158 more rows

# With comma separated string
my_bounding_box <- "-80.126038,43.458297,-79.002481,43.969098"
my_stations <- ki_station_list(hub = 'swmc', bounding_box = my_bounding_box)
my_stations
#> # A tibble: 168 x 5
#>    station_name    station_no  station_id station_latitude station_longitu~
#>    <chr>           <chr>       <chr>                 <dbl>            <dbl>
#>  1 ALBION HILLS    SNOW-MNR-2~ 137457                 43.9            -79.8
#>  2 ALTON           SNOW-WLF-AL 967627                 43.8            -80.1
#>  3 Acton Sewage T~ ZZ-WSC-ACT~ 149765                 43.6            -80.0
#>  4 BELFOUNTAIN     ZZSNOW-MNR~ 147848                 43.8            -80.0
#>  5 BELFOUNTAIN2    ZZSNOW-MNR~ 147864                 43.8            -80.0
#>  6 BOYD            SNOW-MNR-2~ 137465                 43.8            -79.6
#>  7 BROUGHAM CREEK~ HYDAT-02HC~ 135564                 43.9            -79.1
#>  8 BRUCE'S MILL    SNOW-MNR-2~ 137477                 43.9            -79.4
#>  9 BUTTONVILLE A   CLIM-MSC-Y~ 132165                 43.9            -79.4
#> 10 Black Creek be~ WSC-02HB024 247406                 43.6            -80.0
#> # ... with 158 more rows
```

#### By Search Term

You can also narrow search results using a search term. This supports
the use of `*` as a wildcard.

``` r
# All stations starting with 'A'
my_stations <- ki_station_list(
  hub = 'swmc', 
  search_term = "A*"
  )

my_stations
#> # A tibble: 140 x 5
#>    station_name     station_no station_id station_latitude station_longitu~
#>    <chr>            <chr>      <chr>                 <dbl>            <dbl>
#>  1 A SNOW TEMPLATE  SNOW-WLF-~ 952125                 NA               NA  
#>  2 AA SNOW TEMPLATE SNOW-WLF-~ 954599                 NA               NA  
#>  3 ABBOTSFORD A     CLIM-MSC-~ 133535                 49.0           -122. 
#>  4 ABERDEEN         CLIM-MSC-~ 121939                 45.5            -98.4
#>  5 ABITIBI CANYON   ZZSNOW-OP~ 148200                 49.9            -81.6
#>  6 ABITIBI LAKE     CLIM-MNR-~ 121135                 48.7            -80.1
#>  7 ABITIBI RIVER A~ HYDAT-04M~ 136328                 49.9            -81.6
#>  8 ABITIBI RIVER A~ HYDAT-04M~ 136304                 48.8            -80.7
#>  9 ABITIBI RIVER A~ HYDAT-04M~ 136324                 49.6            -81.4
#> 10 ABITIBI RIVER A~ HYDAT-04M~ 136332                 50.2            -81.6
#> # ... with 130 more rows
…
#### By Group

You can retrieve a list of available station and time series groups
using `ki_group_list`

``` r
all_groups <- ki_group_list(hub = 'swmc')
all_groups
#> # A tibble: 168 x 3
#>    group_name                      group_id group_type
#>    <chr>                           <chr>    <chr>     
#>  1 Ausable Bayfield CA             169270   station   
#>  2 WWW_Extranet                    181729   station   
#>  3 All Active Stream Gauges        199135   station   
#>  4 All MOE COA-RAC                 199818   station   
#>  5 All Trent Severn Waterway       199828   station   
#>  6 Archived Streamgauging Stations 199829   station   
#>  7 Aurora MNR                      199830   station   
#>  8 Bancroft MNR                    199831   station   
#>  9 Bracebridge MNR                 199832   station   
#> 10 Cataraqui CA                    199833   station   
#> # ... with 158 more rows
```

You can then pass values from the `group_id` column to `ki_station_list`
to filter for only stations included in the group

``` r
group_stations <- ki_station_list(
  hub = 'swmc', 
  group_id = '169270'
  )

group_stations
#> # A tibble: 25 x 5
#>    station_name     station_no station_id station_latitude station_longitu~
#>    <chr>            <chr>      <chr>                 <dbl>            <dbl>
#>  1 Ausable River N~ WSC-02FF0~ 142338                 43.2            -81.8
#>  2 Ausable River a~ Wiski-0015 138406                 43.2            -81.9
#>  3 Ausable River n~ WSC-02FF0~ 142324                 43.4            -81.5
#>  4 Ausable River n~ WSC-02FF0~ 142269                 43.1            -81.7
#>  5 BRUCEFIELD (CAM~ SNOW-MNR-~ 137228                 43.5            -81.5
#>  6 Bayfield River ~ WSC-02FF0~ 142296                 43.6            -81.6
#>  7 Black Creek nea~ WSC-02FF0~ 142392                 43.4            -81.5
#>  8 Garvey Glenn at~ Wiski-0202 139749                 44.0            -81.7
#>  9 Gully Creek at ~ Wiski-0200 139731                 43.6            -81.7
#> 10 KHIVA (OROURKE)  SNOW-MNR-~ 137232                 43.3            -81.6
#> # ... with 15 more rows
```
…
By default, this will also return `to` and `from` columns indicating the
period of record for that time series. You can speed up queries by
setting the `coverage` argument to `FALSE`.

#### One Station

``` r
# Single station_id
available_ts <- ki_timeseries_list(
  hub = 'swmc', 
  station_id = "144659"
  )

available_ts
#> # A tibble: 180 x 6
#>    station_name station_id ts_id ts_name from               
#>    <chr>        <chr>      <chr> <chr>   <dttm>             
#>  1 Jackson Cre~ 144659     1143~ 3Month% 2000-02-01 05:00:00
#>  2 Jackson Cre~ 144659     1143~ 18Mont~ 2000-02-01 05:00:00
#>  3 Jackson Cre~ 144659     1143~ MonthT~ 2000-02-01 05:00:00
#>  4 Jackson Cre~ 144659     1166~ Water ~ 2018-04-23 05:00:00
#>  5 Jackson Cre~ 144659     1166~ SoilMo~ 2018-01-01 05:00:00
#>  6 Jackson Cre~ 144659     1166~ Water ~ 2018-04-23 05:00:00
#>  7 Jackson Cre~ 144659     1166~ Water ~ 2018-04-23 05:00:00
#>  8 Jackson Cre~ 144659     1166~ Soil M~ 2018-04-23 18:00:00
#>  9 Jackson Cre~ 144659     1166~ Water ~ 2018-04-01 05:00:00
#> 10 Jackson Cre~ 144659     1166~ Soil M~ 2018-04-23 18:00:00
#> # ... with 170 more rows, and 1 more variable: to <dttm>
…
If you provide a vector to `station_id`, the returned tibble will have
all the available time series from *all* stations. They can be
differentiated using the `station_name` column.

``` r
# Vector of station_ids
my_station_ids <- c("144659", "144342")

available_ts <- ki_timeseries_list(
  hub = 'swmc', 
  station_id = my_station_ids
  )

available_ts
#> # A tibble: 257 x 6
#>    station_name station_id ts_id ts_name from               
#>    <chr>        <chr>      <chr> <chr>   <dttm>             
#>  1 Oshawa Cree~ 144342     1143~ Precip~ 2001-01-01 05:00:00
#>  2 Oshawa Cree~ 144342     9455~ Precip~ 1990-08-01 05:00:00
#>  3 Oshawa Cree~ 144342     9455~ Precip~ 1990-01-01 05:00:00
#>  4 Oshawa Cree~ 144342     1143~ Precip~ 1990-08-01 05:00:00
#>  5 Oshawa Cree~ 144342     9455~ Precip~ 1990-08-01 05:00:00
#>  6 Oshawa Cree~ 144342     1140~ Precip~ 2005-01-01 06:00:00
#>  7 Oshawa Cree~ 144342     9455~ Precip~ 1990-08-01 10:00:00
#>  8 Oshawa Cree~ 144342     1143~ Precip~ 2000-02-01 05:00:00
#>  9 Oshawa Cree~ 144342     1143~ Precip~ 2000-01-01 05:00:00
#> 10 Oshawa Cree~ 144342     1143~ Precip~ 2000-01-02 05:00:00
#> # ... with 247 more rows, and 1 more variable: to <dttm>
…
You can pass either a single or multiple `ts_id`(s).

#### One Time Series

``` r
# Past 24 hours
my_values <- ki_timeseries_values(
  hub = 'swmc', 
  ts_id = '966435042'
  )
#> No start or end date provided, trying to return data for past 24 hours

my_values
#> # A tibble: 454 x 7
#>    Timestamp           Value ts_name ts_id  Units station_name   station_id
#>    <dttm>              <dbl> <chr>   <chr>  <chr> <chr>          <chr>     
#>  1 2019-12-14 00:00:00  25.0 LVL.1.O 96643~ m     Attawapiskat ~ 146273    
#>  2 2019-12-14 00:05:00  25.0 LVL.1.O 96643~ m     Attawapiskat ~ 146273    
#>  3 2019-12-14 00:10:00  25.0 LVL.1.O 96643~ m     Attawapiskat ~ 146273    
#>  4 2019-12-14 00:15:00  25.0 LVL.1.O 96643~ m     Attawapiskat ~ 146273    
#>  5 2019-12-14 00:20:00  25.0 LVL.1.O 96643~ m     Attawapiskat ~ 146273    
#>  6 2019-12-14 00:25:00  25.0 LVL.1.O 96643~ m     Attawapiskat ~ 146273    
#>  7 2019-12-14 00:30:00  25.0 LVL.1.O 96643~ m     Attawapiskat ~ 146273    
#>  8 2019-12-14 00:35:00  25.0 LVL.1.O 96643~ m     Attawapiskat ~ 146273    
#>  9 2019-12-14 00:40:00  25.0 LVL.1.O 96643~ m     Attawapiskat ~ 146273    
#> 10 2019-12-14 00:45:00  25.0 LVL.1.O 96643~ m     Attawapiskat ~ 146273    
#> # ... with 444 more rows
```

#### Multiple Time Series

``` r
# Specified date, multiple time series
my_ts_ids <- c("1125831042","908195042")
my_values <- ki_timeseries_values(
  hub = 'swmc',
  ts_id = my_ts_ids,
  start_date = "2015-08-28",
  end_date = "2018-09-13"
  )

my_values
#> # A tibble: 1,264 x 7
#>    Timestamp           Value ts_name  ts_id  Units station_name  station_id
#>    <dttm>              <dbl> <chr>    <chr>  <chr> <chr>         <chr>     
#>  1 2015-09-06 05:00:00  0.19 Q.DayBa~ 11258~ cumec Chippewa Cre~ 140764    
#>  2 2015-09-17 05:00:00  0.18 Q.DayBa~ 11258~ cumec Chippewa Cre~ 140764    
#>  3 2015-09-26 05:00:00  0.19 Q.DayBa~ 11258~ cumec Chippewa Cre~ 140764    
#>  4 2015-09-27 05:00:00  0.19 Q.DayBa~ 11258~ cumec Chippewa Cre~ 140764    
#>  5 2015-09-28 05:00:00  0.19 Q.DayBa~ 11258~ cumec Chippewa Cre~ 140764    
#>  6 2015-10-03 05:00:00  0.21 Q.DayBa~ 11258~ cumec Chippewa Cre~ 140764    
#>  7 2015-10-08 05:00:00  0.22 Q.DayBa~ 11258~ cumec Chippewa Cre~ 140764    
#>  8 2015-10-12 05:00:00  0.24 Q.DayBa~ 11258~ cumec Chippewa Cre~ 140764    
#>  9 2015-10-24 05:00:00  0.41 Q.DayBa~ 11258~ cumec Chippewa Cre~ 140764    
#> 10 2015-11-11 05:00:00  0.42 Q.DayBa~ 11258~ cumec Chippewa Cre~ 140764    
#> # ... with 1,254 more rows
…
